<?xml version="1.0" encoding="iso-8859-1"?>
<!-- Generator: Adobe Illustrator 19.0.0, SVG Export Plug-In . SVG Version: 6.00 Build 0)  -->
<svg version="1.1" id="Layer_1" xmlns="http://www.w3.org/2000/svg" xmlns:xlink="http://www.w3.org/1999/xlink" x="0px" y="0px"
	 viewBox="0 0 512 512" style="enable-background:new 0 0 512 512;" xml:space="preserve">
<path style="fill:#FF6029;" d="M449.673,287.164C449.673,411.337,349.01,512,224.836,512S0,411.337,0,287.164
	S100.663,62.327,224.836,62.327S449.673,162.989,449.673,287.164z"/>
<path style="fill:#B7441C;" d="M449.673,287.164c0,14.877-1.46,29.411-4.217,43.481H225.878c-24.588,0-44.522-19.933-44.522-44.522
	V66.544c14.07-2.757,28.604-4.217,43.481-4.217C349.01,62.327,449.673,162.989,449.673,287.164z"/>
<path style="fill:#FFBC00;" d="M253.176,0.112c136.877,12.902,245.809,121.835,258.711,258.711c1.38,14.647-10.173,27.3-24.884,27.3
	H238.368c-6.899,0-12.491-5.592-12.491-12.491V24.996C225.878,10.284,238.53-1.269,253.176,0.112z"/>
<path style="fill:#E0A000;" d="M449.66,286.122H238.368c-6.899,0-12.491-5.592-12.491-12.491V62.34
	C349.223,62.901,449.099,162.777,449.66,286.122z"/>
<g>
</g>
<g>
</g>
<g>
</g>
<g>
</g>
<g>
</g>
<g>
</g>
<g>
</g>
<g>
</g>
<g>
</g>
<g>
</g>
<g>
</g>
<g>
</g>
<g>
</g>
<g>
</g>
<g>
</g>
</svg>
