<svg width="25" height="25" viewBox="0 0 25 25" fill="none" xmlns="http://www.w3.org/2000/svg">
<path d="M21.5 21.7646L21.5 3.76465L3.5 3.76465L3.5 21.7646L21.5 21.7646ZM7.5 9.76465L7.5 7.76465L14.5 7.76465L14.5 9.76465L7.5 9.76465ZM7.5 13.7646L7.5 11.7646L17.5 11.7646L17.5 13.7646L7.5 13.7646ZM7.5 17.7646L7.5 15.7646L11.5 15.7646L11.5 17.7646L7.5 17.7646Z" fill="#5591F5"/>
</svg>
